<?xml version="1.0" encoding="UTF-8"?>
<!DOCTYPE svg PUBLIC "-//W3C//DTD SVG 1.1//EN" "http://www.w3.org/Graphics/SVG/1.1/DTD/svg11.dtd">
<!-- Creator: CorelDRAW X7 -->
<svg xmlns="http://www.w3.org/2000/svg" xml:space="preserve" width="1896px" height="805px" version="1.1" style="shape-rendering:geometricPrecision; text-rendering:geometricPrecision; image-rendering:optimizeQuality; fill-rule:evenodd; clip-rule:evenodd"
viewBox="0 0 1896 805"
 xmlns:xlink="http://www.w3.org/1999/xlink">
 <defs>
  <style type="text/css">
   <![CDATA[
    .fil1 {fill:#3E3935;fill-rule:nonzero}
    .fil0 {fill:#8E734C;fill-rule:nonzero}
   ]]>
  </style>
 </defs>
 <g id="Layer_x0020_1">
  <metadata id="CorelCorpID_0Corel-Layer"/>
  <g id="_668482658896">
   <path class="fil0" d="M614 277l2 -5c0,0 0,-5 0,-5 0,-1 -6,-5 -6,-5l-12 -6 -3 -4 -2 -3 -5 -2 -8 -7 -19 -9c0,0 -4,-5 -5,-6 0,-2 -9,-3 -10,-3 0,0 0,0 0,0 -2,0 -13,3 -13,3l-1 0 -10 5 -17 -2 -19 -3 -24 -3 -3 -1 -8 30c0,0 -6,1 -14,1l-2 25 0 1 -5 1c0,1 0,2 0,2 0,0 0,4 0,5 1,0 5,4 7,5 1,0 7,3 7,3 0,0 10,0 12,1 1,0 7,1 7,1l11 -1c0,0 2,-2 3,-3 0,-1 13,-7 14,-7 1,0 10,-5 10,-5l10 0 12 -1 2 -2 3 4c0,0 0,4 4,4 3,0 8,-1 8,-1l1 3 1 3 4 2c0,0 0,-4 5,0 5,3 8,4 8,4l3 0 4 0 5 3c0,0 3,-1 9,-2 6,-1 -6,-2 4,-1 10,1 9,1 9,1l3 2 7 -3c0,0 7,-2 8,-3l0 -1c1,0 1,-1 1,-2l2 0 1 -2 0 -1 3 -4 -4 -6z"/>
   <polygon class="fil1" points="1180,522 1188,525 "/>
   <polygon class="fil1" points="1176,519 1162,513 1160,509 1151,504 1150,507 1144,501 1150,507 1151,504 1160,509 1162,513 1176,519 1180,519 "/>
   <path class="fil0" d="M1896 156l-15 4 -11 3 -10 7 -17 -2 -4 -5 2 -5 -2 -7 0 -4 -6 -1 -9 -11 -4 1 -6 -2 0 -3 -12 -1 -3 -2 0 -8 -4 -5 -6 -18 -10 -26 -3 -6 0 -4 -5 -2 -1 -4 -3 -3 -6 1 -21 -9 -32 4 -14 12 1 5 7 1 0 12 -18 38 -8 8 -13 7c0,0 -7,-2 -8,-2 0,0 -5,-2 -8,-5l-11 20 -3 13 -4 4 8 7 4 -3 9 1 6 3 6 -6 10 0 9 7 9 15 0 3 -2 3 -7 0 -4 -4 -2 3 -3 -2 -9 5 -6 -4 0 5 -10 4 -11 12 -6 4 -13 1 -13 11 -12 -3 -3 -2 -9 0 -8 10 10 17 -13 5 -10 12 -6 5 -34 3 -32 14 -6 -2 -2 -4 -12 0 -21 -7 -6 -5 -15 -2 -13 2 -33 -4 -13 0 -10 -22 -3 -3 3 -4 -6 0 -21 -12 -36 -5 -3 -13 4 -4 -1 -5 3 -4 -11 -23 -5 -4 -3 0 -2 -4 -3 0 -8 -2 -5 -6 -6 -3 2 -4 -4 -5 -2 -3 -4 0 -9 2 -1 9 -3 3 -2 1 -6 0 -4 4 2 15 -2 7 -3 0 -7 4 0 -2 -15 2 -11 -6 -10 32 5 4 0 5 -11 -1 -2 -3 -20 6 -3 2 -2 2 1 2 4 -2 3 5 1 15 4 10 -2 3 -3 2 3 3 -5 2 -1 10 -2 -2 2 2 -1 2 1 1 -4 0 -3 4 -24 12 -4 4 -11 -2 -6 11 -11 4 0 -6 -6 3 -4 -2 0 3 -14 6 -1 5 2 3 -1 1c0,1 -2,1 -4,1l0 3 2 3 2 6 6 4 5 3 5 9 0 6 1 3 -3 2 -2 -2 -2 1 -2 2 1 2 7 2 7 4 10 5 5 3 0 4 8 4 2 1 2 3 6 1 10 -7 2 -2 3 0 5 1 5 5 7 2 0 3 -1 4 -2 5 -4 5 -3 1 -6 8 -4 8 5 5 0 6 -3 7 -3 -5 -4 3 0 5 2 4 3 4 10 10 8 4 2 5 9 5 0 0 -6 5 6 -5 2 0 1 3 3 -5 2 -1 9 1 0 4 15 8 5 7 4 -3 4 1 0 6 6 4 6 -1 2 3 0 2 5 2 2 -2 3 6 3 -3 3 3 3 -2 7 4 5 0 2 0 3 -2 3 2 10 -4 2 5 2 2 9 -8 5 0 12 0 7 4 4 3 5 0 5 -3 8 -8 16 -8 0 -3 4 -1 6 0c0,0 4,2 5,1 0,0 4,-3 4,-3l8 0 5 7 0 4 -4 3 -5 2c6,3 14,7 14,7l0 7 2 2 -2 -2 0 -7 6 -1 0 -4 4 -5 6 6 3 8 2 -1 3 2 0 21 -2 1 2 3 -7 6 -1 -2c0,0 -1,5 -1,5 -1,0 -3,0 -3,0l-1 8 -3 1 0 3 3 2 -1 3 -2 3 2 2 5 -3 11 -1 -2 5 2 3 0 6 10 1 0 4 -2 -2 -4 13 4 1 2 -1c0,0 3,0 3,1 0,0 2,2 2,2l2 4 1 2 4 1 2 -1 0 0 7 -5 2 9 7 -1 -1 -4 1 -1 -4 -9 3 -3 5 1 7 -5 8 4 2 -6 4 3 2 -3 2 4 3 -4 5 0 10 -8 10 7 9 0 0 4 1 8 6 3 1 4 14 2 0 0 6 -1 9 4 4 -3 6 1 -6 4c0,0 2,7 3,7 0,1 4,8 4,8l8 -2 -2 -5 -4 -3 6 -5 24 -8 17 -6 0 -8 12 2 17 -1 15 -10 30 -26 7 -8 6 -12 -6 -5 7 0 6 -8 12 -13 9 -14 0 -6 -1 -5 -6 5 0 -1 8 -8 -3 0c0,0 -3,-3 -3,-3l-5 -4 -4 2 -9 -1 9 -1 2 -4 13 -4 -3 -7 -6 -3 2 -2 6 3 1 -1 -7 -5 0 -7 -7 -12 -11 -23 -10 -7 -4 0 1 -3 5 -10 12 -9 3 -4 3 -4 10 -4 2 -2 4 0 2 2 4 -2 -2 -3 0 -5 -2 0c0,0 0,-2 -3,-2 -3,0 -8,0 -8,0l-1 -1 -3 0 0 -2 -4 -3 -7 2 -8 10 -6 0 -6 -3 3 -10c0,0 -4,-4 -4,-3 -1,0 -10,-1 -12,-2 -1,-1 -3,-5 -4,-6l2 -9c0,0 1,-4 1,-4 0,-1 5,0 5,1 0,0 0,4 0,4 1,1 5,0 5,0l0 -3 5 1 4 -7 3 -8 13 -5 5 -10 5 -3 8 -1 3 1 5 7 -4 6 -6 6 -3 6 0 3 4 1 -1 4 -4 2 -3 2c0,0 3,1 4,1 0,0 5,-3 5,-3l8 -7c0,0 10,-5 11,-6 0,0 12,-4 12,-4l5 -2c0,0 6,-6 6,-7 0,0 17,-9 17,-9l8 -12 0 -3 3 -1 4 5 12 2 4 -3 -3 -9 12 0 3 -6 6 0 4 -10 3 0 4 4 11 -6 1 -12 -7 -23 5 -1 9 -8 17 4 18 -46 6 -5 0 0 -2 -6 2 -8 0 0z"/>
   <polygon class="fil0" points="850,211 814,222 "/>
   <polygon class="fil0" points="889,243 895,250 889,243 882,233 866,222 882,233 "/>
   <path class="fil0" d="M830 291l-2 -1 0 -10 5 -4 7 -2 1 -5 7 5 -3 -7 4 0 1 -3 11 9 6 1 2 3 -1 2 5 4 -3 0 1 3 0 4 6 3 6 -1 4 3 2 -3 7 6 6 18 44 31 3 -2 12 7 -3 2 0 8 1 0 6 0 3 3 4 -1 3 1 1 0 -1 -1 1 -6 5 -6 2 -4 0 -2 -4 -1 0 -8 0 -3 -2 0 -2 0 -1 -3 -4 -1 0 -3 2 -4 7 0 8 1c0,0 0,-5 0,-5 0,-1 2,-1 2,-1l1 -6 6 0 -1 -3 0 -5 3 -3 4 2 11 -7 3 7 -5 4 4 5 3 0 5 -3 6 2 1 2 3 -2 1 -3 2 -1 2 1 0 -1 5 -2 1 -3 6 -2 -8 -1 -2 -2 -5 1 0 -3 -3 0 -2 -4 -2 -3 -3 7 -8 -2 -2 -4 -4 1 -2 -2 9 -8 0 -2 5 -2 -5 -3 0 0 0 1 0 1 -4 4 -1 -2 -15 13 -6 0 0 3 -3 4 -4 0 1 4 1 4 -2 0 -8 -3 2 -4 0 -3 -18 0 -2 -10 -4 -4 -4 -3 1 -17 -4 2 -2 -4 -1 -4 -9 -8 -6 3 -20 -1 -15 1 -6 -7 -7 -10 -16 -11 -16 -11 -36 11 0 70 14 0 2 -1z"/>
   <path class="fil0" d="M1052 325c-1,0 -2,1 -3,1 0,0 0,0 0,0 -1,0 -1,0 -1,0 -1,0 -1,0 -1,0 0,0 -1,0 -1,0 0,0 0,0 0,0 -1,0 -1,0 -1,0 0,0 -1,0 -1,0 0,0 0,0 -1,0 0,0 0,0 0,0 0,0 -1,0 -1,0 0,0 0,0 0,0 0,1 0,1 0,1 0,0 0,0 -1,0 0,0 0,0 -1,0 0,0 0,0 0,0 0,0 -1,0 -1,0 -1,0 -1,0 -1,0 0,0 0,0 0,0 0,0 0,0 0,0l-2 3 -2 -4 -4 1 0 -1 -3 -1 -1 -3 -9 4 -4 -3 -3 1 -13 -1 0 -4 -1 -4 2 1 1 -4 4 0 4 -1 6 2 0 3 5 -3 0 -1 -3 0 -4 -5 5 -4 -3 -7 -11 7 -4 -2 -3 3 0 5 1 3 -6 0 -1 6c0,0 -2,0 -2,1 0,0 0,5 0,5l-8 -1 -7 0 -2 4 0 3 4 1 1 3 2 0 2 0 0 3 0 8 4 1 0 2 -2 4 -5 6 -1 6 1 1 2 4 12 -7 5 4 2 0 1 -2 0 -3 2 -3 6 0 2 1 1 -6 4 -6 7 -5 3 2 0 3 0 4 0 2 4 -1 -1 7 0 0 0 6 2 7c3,-3 5,-5 5,-5l7 0 0 0 3 0 2 -3 7 -4 6 1 -1 3 8 -4 4 1 2 1 2 2 3 -2 -1 -3 0 -6 -5 -9 -5 -3 -6 -4 -2 -6 -2 -3 0 -3c-1,0 -2,0 -3,0 0,0 0,0 0,0zm-56 42l1 -1 -2 0 1 1z"/>
   <path class="fil0" d="M1139 270l-3 0 -1 -1 -2 -1 0 -2 -1 -2 -46 -3 -3 3 -13 -4 -6 -4 -4 1 -3 1 -3 4 0 9 -11 -4 -9 -3 -10 0 -2 2 -2 2 0 2 -1 1 -1 1 0 1 5 3 -5 2 0 2 -9 8 2 2 4 -1 2 4 8 2 3 -7 2 3 2 4 3 0 0 3 5 -1 2 2 8 1 -6 2 -1 3 -5 2 0 1 -2 -1 -2 1 -1 3 -3 2 -1 -2 -6 -2 -5 3 0 1 -5 3 0 -3 -6 -2 -4 1 -4 0 -1 4 -2 -1 1 4 0 4 13 1 3 -1 4 3 9 -4 1 3 3 1 0 1 4 -1 2 4 2 -3c0,0 0,0 0,0 0,0 0,0 0,0 0,0 0,0 0,0 1,0 1,0 2,0 0,0 0,0 0,0 0,0 0,0 0,0 0,0 0,0 0,0 0,0 0,0 0,0 1,0 1,0 2,-1 0,0 1,0 1,0 0,0 0,0 0,0 1,0 1,0 1,0 0,0 1,0 1,0 0,0 0,0 1,0 0,0 0,0 0,0 0,0 1,0 1,0 0,0 0,0 1,0 0,0 0,0 1,0 0,0 0,0 0,0 1,0 2,-1 3,-1 0,0 0,0 0,0 1,0 2,0 3,0 2,0 4,0 4,-1l1 -1 -2 -3 1 -5 14 -6 0 -3 4 2 6 -3 0 6 11 -4 6 -11 11 2 4 -4 24 -12 3 -4 4 0 -1 -1 1 -2 -2 -2 -1 -2 -4 -1z"/>
   <path class="fil0" d="M886 392l3 2 3 1 6 0 3 5 3 -3 3 0 1 0 3 -2 0 -3 2 -2 -2 -3 10 -1 10 -7 3 -10 1 -3 10 -2 3 -5 10 3 0 0 0 -8 3 -2 -12 -7 -3 2 -44 -31 -6 -18 -7 -6 -2 3 -4 -3 -6 1 -6 -3 0 -4 -1 -3 3 0 -5 -4 1 -2 -2 -3 -6 -1 -11 -9 -1 3 -4 0 3 7 -7 -5 -1 5 -7 2 -5 4 0 10 2 1 -2 1 -14 0 -5 0 -2 0 -5 -8 -5 -7 -6 -4 -5 1 -14 3 -5 5 3 7 -1 -7 3 -3 6 -2 5 0 1 0 1 0 2 9 12 11 -4 5 -3 0 -5 0 0 0 -4 0c0,0 -1,0 -2,0l-10 -1 -1 1 -2 3c0,1 0,2 0,2l4 8 1 0 9 -1 -4 9 -3 4 4 2c2,1 3,1 3,1l1 4 2 4c0,0 0,14 -1,24l8 0 3 -1 4 -6 7 -6 10 1 4 -4 4 1 4 1 1 -2 3 5 6 2 3 1 5 4 6 -2 6 2 1 1 3 7 8 3 3 4 1 1 10 0 0 12 2 5 0 1z"/>
   <polygon class="fil1" points="1147,495 1147,495 1144,501 1150,507 1151,504 1160,509 1162,513 1176,519 1180,519 1180,522 1188,525 1190,523 1190,523 1196,525 1196,524 1197,523 1200,523 1206,525 1207,526 1207,529 1209,530 1214,533 1221,533 1223,537 1226,535 1228,536 1236,538 1238,538 1240,537 1241,539 1243,540 1246,540 1250,539 1251,539 1254,538 1255,533 1253,528 1252,527 1251,518 1254,517 1251,515 1248,517 1246,517 1241,517 1234,513 1231,515 1228,512 1225,515 1222,509 1220,511 1215,509 1215,507 1213,504 1207,505 1201,501 1201,495 1197,494 1193,497 1188,490 1173,482 1173,478 1164,477 1162,478 1159,483 1158,480 1156,480 1150,485 1147,487 "/>
   <path class="fil1" d="M1253 528l9 2c0,0 2,2 3,3 0,0 11,2 11,2l8 -2 10 1 25 -2 14 -2 7 -9 7 -3 4 -4 11 -4 5 -2 4 -3 0 -4 -5 -7 -8 0c0,0 -4,3 -4,3 -1,1 -5,-1 -5,-1l-6 0 -4 1 0 3 -16 8 -8 8 -5 3 -5 0 -4 -3 -7 -4 -12 0 -5 0 -9 8 -2 -2 -2 -5 -10 4 -3 1 2 10z"/>
   <path class="fil1" d="M1347 518l-7 3 -7 9 -14 2 -25 2 -10 -1 -8 2c0,0 -11,-2 -11,-2 -1,-1 -3,-3 -3,-3l-9 -2 2 5 -2 7 7 0 -2 2c3,0 7,0 7,0l4 3 3 1 2 -1 3 -1 1 2 0 1 0 8 8 3 22 0 2 1 4 2 -1 1 -1 0 -2 2 -1 4 -1 3c0,0 -1,0 -3,1 0,0 0,0 0,0 0,0 0,0 -1,0 0,0 0,0 0,0 0,0 0,0 -1,0 0,0 0,0 0,0 0,0 0,0 0,0 -2,1 -3,1 -3,1 -1,0 -4,8 -4,8 0,0 2,5 3,7 0,1 0,2 1,2 0,0 0,0 0,0 1,0 3,0 3,0 1,0 0,-4 0,-4l3 -1 2 -6 3 1 3 12 2 12 3 1 1 1 4 -4 -1 -7 0 -6 1 0 2 1 2 -4 -3 -11 1 2 4 -1 0 0 7 1 1 -2 7 -16 -2 -2 2 -3 0 -1 4 -3 0 -1 3 -12 4 -3 9 -7 6 -2c0,0 1,0 2,1 0,0 0,0 0,0 1,0 1,1 2,1 0,1 0,1 1,1 0,0 0,0 0,0 0,1 2,1 2,1l1 -2 0 0 -1 -1 -2 -2 0 -7c0,0 -8,-4 -14,-7l-11 4 -4 4z"/>
   <polygon class="fil1" points="715,490 715,490 712,486 "/>
   <polygon class="fil0" points="391,313 391,313 390,312 "/>
   <polygon class="fil0" points="392,302 390,312 "/>
   <polygon class="fil0" points="395,309 402,303 "/>
   <path class="fil0" d="M428 275c1,1 1,3 2,4l5 -1 0 -1c-4,-2 -7,-4 -11,-7 1,3 2,4 4,5z"/>
   <path class="fil0" d="M457 221l-4 -5 -2 10c0,0 -4,0 -4,0 -1,0 -4,-3 -4,-3l-2 2 0 2c0,0 1,3 0,4 0,0 -2,4 -2,4 0,0 -2,8 -2,8 1,1 0,2 0,4l0 5c8,0 14,-1 14,-1l8 -30 -2 0z"/>
   <path class="fil0" d="M437 247c0,2 -1,5 -1,5l-7 2 -1 11c0,0 -3,1 -4,2 0,0 0,1 0,3 0,0 0,0 0,0 4,3 7,5 11,7l2 -25 0 -5z"/>
   <polygon class="fil1" points="715,490 715,490 714,489 "/>
   <polygon class="fil1" points="711,486 710,486 714,489 715,490 712,486 "/>
   <polygon class="fil0" points="391,313 395,309 "/>
   <polygon class="fil0" points="394,303 392,302 390,312 391,313 395,309 402,303 "/>
   <polygon class="fil0" points="753,571 753,571 753,571 "/>
   <polygon class="fil0" points="801,597 802,596 801,597 767,593 753,571 753,571 767,593 "/>
   <polygon class="fil1" points="694,483 690,489 684,498 659,496 620,464 598,451 589,450 584,449 584,449 578,451 554,461 578,451 584,449 584,449 589,450 598,451 620,464 659,496 684,498 690,489 694,483 706,483 707,484 706,483 "/>
   <polygon class="fil1" points="708,480 703,474 704,470 703,474 "/>
   <polygon class="fil1" points="580,447 584,445 585,447 584,449 589,450 591,448 585,431 583,426 577,429 582,443 "/>
   <polygon class="fil1" points="412,155 411,157 411,158 411,157 "/>
   <polygon class="fil1" points="423,153 423,153 422,155 "/>
   <polygon class="fil0" points="424,280 430,279 "/>
   <polygon class="fil0" points="405,284 404,284 407,283 404,284 "/>
   <polygon class="fil0" points="358,291 360,291 362,291 360,291 "/>
   <polygon class="fil0" points="394,292 393,295 "/>
   <polygon class="fil0" points="402,303 403,302 407,299 403,302 "/>
   <polygon class="fil1" points="434,158 435,159 434,158 430,157 427,155 430,157 "/>
   <path class="fil0" d="M392 293c0,0 0,0 0,0 0,0 0,0 0,0z"/>
   <polygon class="fil0" points="311,282 311,277 "/>
   <path class="fil0" d="M404 284l1 5c0,0 -6,2 -6,2 0,0 -3,1 -5,1l-1 3 -1 7 2 1 8 0 0 0 1 -1 4 -3 0 -6 4 -2 -1 -5 -5 -2 -1 0 0 0z"/>
   <path class="fil0" d="M428 275c-2,-1 -3,-2 -4,-5 -4,-3 -8,-5 -8,-5l-22 25 0 2c2,0 5,-1 5,-1 0,0 6,-2 6,-2l-1 -5 0 0 3 -1 5 -5 12 2 6 -1c-1,-1 -1,-3 -2,-4z"/>
   <path class="fil0" d="M361 284l-2 -5 -3 -3 -2 -3 -3 0 -6 2 -6 0 -1 3 -4 -2 -4 4c0,0 -1,2 -3,3l0 1 0 3 -1 1 3 10 4 2 0 0 12 0 2 -5 10 0 1 -4 2 0 1 -7z"/>
   <path class="fil0" d="M394 290l22 -25c0,0 4,2 8,5 0,0 0,0 0,0 0,-2 0,-3 0,-3 1,-1 4,-2 4,-2l1 -11 7 -2c0,0 1,-3 1,-5l-19 -8 -13 3 -8 5 -23 0 -7 -1 -7 -2 1 -3 -5 -4 0 0 -4 6 1 6 7 7 -1 5 -5 2 0 10 2 3 3 3 2 5 -1 7 2 0 1 -1 18 -2 3 2 8 3c0,0 0,0 0,0 1,0 1,0 1,-1 1,0 1,0 1,0l0 -2z"/>
   <path class="fil0" d="M641 294l8 0 10 -1 5 -1 1 -2 4 0 6 3 10 3 3 -4 -8 -7 4 -4 -6 -2 -6 -1 0 -3 1 -4 -5 -2 -6 -4 -2 3 -1 -2 -6 0 -4 3 -4 -2 1 -3 -8 -2 -4 -4 -13 -2 -11 -2 -6 -4 -8 0c0,0 0,0 0,1 -1,0 -1,0 -1,1l3 4 12 6c0,0 6,4 6,5l0 5 -2 5 4 6 -3 4 4 3 3 -3 6 2 2 -2 3 0 6 5 0 3 2 -1z"/>
   <path class="fil0" d="M706 338l0 0 0 0 5 4 5 1 1 0 1 -4 0 0 5 -11 5 -12 0 -12c0,0 -9,-13 -10,-14l0 0 -1 -1c0,0 1,0 1,1l-6 -8 -1 1 -2 3 0 1 -4 1 -3 5 -3 1 -5 -5 -7 -7 -1 0 -1 1 0 0 -1 -2 -4 4 8 7 -3 4 -10 -3 -6 -3 -4 0 -1 2 -5 1 -10 1 -8 0 5 9 -4 4 2 6 9 1 3 6 3 1 8 11 0 0 2 1 4 1 4 1 2 1 6 -2 4 -3 5 -3 4 -3 4 -3 7 4 -3 2 3 4 -5 3 2 3 0 0z"/>
   <polygon class="fil1" points="783,558 783,558 753,571 753,571 753,571 "/>
   <polygon class="fil1" points="714,489 710,486 "/>
   <polygon class="fil1" points="710,486 710,486 707,484 "/>
   <path class="fil0" d="M689 123l-1 10 3 5 -7 16 6 2 2 3 1 2 -1 1 -2 2 2 3 3 2 5 -3 7 4 11 17 -2 3 -3 -2 -1 2c0,0 -2,2 0,2 2,1 5,1 6,2 1,0 4,2 4,2l3 4 6 -5 11 -8 10 -2 14 1 7 5 0 9 1 7 -8 7 -20 7 -2 4 4 3 7 4 -6 1 -14 -2 0 5 9 3 1 6 4 6 1 8 4 -1 5 8 1 -2 9 1 1 3 -4 12 1 2 5 -5 14 -3 5 -1 6 4 5 7 5 8 2 0 5 0 0 -70 36 -11 16 11 16 11 7 10 6 7 15 -1 20 1 6 -3 9 8 1 4 2 4 4 -2 -1 17 4 3 4 4 2 10 18 0 0 3 -2 4 8 3 2 0 -1 -4 -1 -4 4 0 3 -4 0 -3 6 0 15 -13 1 2 4 -4 0 -1 0 -1 0 0 0 -1 1 -1 1 -1 0 -2 2 -2 2 -2 7 0 3 0 9 3 11 4 0 -9 3 -4 3 -1 4 -1 6 4 13 4 3 -3 46 3 1 2 0 2 2 1 1 1 3 0 4 1 1 2 2 2 1 -10 5 -2 -3 -3 3 -2 2 -3 -4 -10 -1 -15 -3 -5 -4 2 -1 -2 2 -2 3 -2 20 -6 2 3 11 1 0 -5 -5 -4 10 -32 11 6 15 -2 0 2 7 -4 3 0 2 -7 -2 -15 4 -4 6 0 2 -1 3 -3 1 -9 9 -2 -3 -5 -5 -4 -1 -3 -4 4 -17 -2 -2 -7 -6 -3 -4 -12 -13 -6 -11 5 -14 0 0 -5 -4 -1 0 -4 -5 -4 -6 4 -1 6 -4 3 -28 -53 -21 -21 7 -3 -2 -3 -11 1 -18 12 -4 6 -6 -2 -7 2 1 -11 -20 -4 -13 -2 -9 -25 -18 -2 -13 9 -82 22 -15 2 1 8 -2 5 13 8 -17 4 2 14 -13 6 9 9 14 7 -6 11 -13 1 -8 5 -19 -13 -25 1 -9 11 -6 -3 -9 -7 2 11 -4 1 -4 -9 -10 -12 -15 -5 -24 0 -14 11 -15 10 3 14 -7 5 -11 -13c0,0 -1,0 -4,1l-2 7 -4 2z"/>
   <polygon class="fil0" points="992,290 992,293 "/>
   <polygon class="fil0" points="850,211 850,211 866,222 "/>
   <polygon class="fil1" points="423,153 423,153 427,155 "/>
   <path class="fil0" d="M545 385l0 -3c0,0 4,-2 4,-2l-3 -3 3 -5 5 2 8 1 8 -6 7 4 7 1 23 -8 4 0 7 0 7 -3 2 4 3 0 2 -5 12 2 3 -1 4 -1 2 7 5 -5 -1 -4 1 -5 -6 -4 3 -6 -3 -3 1 -7 -4 -9 5 0 2 -6 -3 -6 -9 -1 -2 -6 4 -4 -5 -9 -2 1 0 -3 -6 -5 -3 0 -2 2 -6 -2 -3 3 -4 -3 0 1 -1 2 -2 0c0,1 0,2 -1,2l0 1c-1,1 -8,3 -8,3l-7 3 -3 -2c0,0 1,0 -9,-1 -10,-1 2,0 -4,1 -6,1 -9,2 -9,2l-5 -3 -4 0 -3 0c0,0 -3,-1 -8,-4 -5,-4 -5,0 -5,0l-4 -2 -1 -3 -1 -3c0,0 -5,1 -8,1 -4,0 -4,-4 -4,-4l-3 -4 -2 2 -12 1 -10 0c0,0 -9,5 -10,5 -1,0 -14,6 -14,7 -1,1 -3,3 -3,3l-11 1c0,0 -6,-1 -7,-1 -2,-1 -12,-1 -12,-1 0,0 -6,-3 -7,-3 -2,-1 -6,-5 -7,-5 0,-1 0,-5 0,-5 0,0 0,-1 0,-2l-6 1 -12 -2 -5 5 -3 1 1 0 5 2 1 5 -4 2 0 6 -4 3 -1 1 0 0 11 1 7 -3 12 -4 13 4 8 2 -14 5 -14 1 -8 -1 -10 4 -1 6 -1 9 7 -2 1 8 -3 7 0 5 6 5 1 4 -2 3c0,0 5,3 6,4 1,0 2,5 2,5 0,0 6,7 6,8 1,1 8,-2 8,-2l10 8 9 3 9 0 0 -5 0 -6 5 -1 15 5 6 10 10 0 14 -7 2 -5 6 -1 10 3 3 -3 4 -2 3 5 -6 5 4 4 -2 2 2 2 4 -4z"/>
   <polygon class="fil0" points="407,299 407,293 411,291 407,293 "/>
   <polygon class="fil0" points="402,303 402,303 402,303 "/>
   <polygon class="fil0" points="411,291 410,286 405,284 410,286 "/>
   <polygon class="fil0" points="633,287 630,287 628,289 622,287 619,290 615,287 619,290 622,287 628,289 630,287 633,287 639,292 "/>
   <polygon class="fil1" points="712,486 712,486 708,480 "/>
   <polygon class="fil0" points="627,367 627,367 620,375 614,376 620,375 "/>
   <path class="fil0" d="M394 292c0,0 0,0 -1,0 0,1 0,1 -1,1 0,0 0,0 0,0l-8 -3 -3 -2 -18 2 -1 1 -2 0 -2 0 -1 4 -10 0 -2 5 -12 0 0 0 0 5 0 0 -2 2 -2 8 -5 0 1 3 -1 4 -3 -1 1 3 6 8 3 8 10 5c0,0 1,3 0,4 -1,0 -5,5 -5,5l7 6 -1 5 4 5 4 6 5 -3 6 6 1 -7 -2 -9 8 -1 9 -10 -1 -9 -16 -15 -7 -10 4 -11 5 6 9 -3 2 -7 10 -3 9 2 1 -7 1 -3z"/>
   <polygon class="fil0" points="393,295 392,302 "/>
   <polygon class="fil0" points="357,295 358,291 "/>
   <polygon class="fil0" points="362,291 363,290 381,288 363,290 "/>
   <polygon class="fil0" points="392,293 392,293 384,290 "/>
   <path class="fil0" d="M393 292c1,0 1,0 1,0 0,0 0,0 -1,0z"/>
   <polygon class="fil0" points="325,318 324,315 329,315 331,307 333,305 333,305 333,300 329,298 326,288 327,287 327,284 327,283 327,276 321,269 318,271 315,268 314,270 309,276 311,277 311,282 315,285 314,293 312,309 320,315 321,321 324,322 "/>
   <polygon class="fil0" points="309,276 314,270 315,268 314,270 "/>
   <path class="fil0" d="M153 140l-10 0 -4 -3 -4 -4 -4 0 -4 -2 -6 1 -6 -5 -3 -6 -6 1 -3 -3 -10 -17 -12 4 -1 16 -17 10 1 4 -4 2 -16 -8 -1 1 -5 0 1 3 -15 15 -5 -3 -4 4 -15 1 0 0 5 8 -3 4 6 2 23 10 16 23 -1 32 -2 6 -4 12 2 3 19 8 5 -1 7 -1 29 7 -1 -14 7 -3 4 -2 18 5 11 3 6 -4 0 0 0 0 -1 0 -2 0 7 -8 0 -2 0 0 0 0 -3 0 -6 -2 -2 -5 3 -3 0 -3 -5 -3 0 -3 5 -2 1 -4 -4 -7 1 -5 0 0 3 -6 -1 -1 -2 -11 9 -14 0 0c0,-1 7,-17 7,-17l2 -6 1 -4 -7 -3z"/>
   <path class="fil0" d="M297 306l-5 -1 -6 -4 -11 -6 -8 -4 -1 -4 1 -5 -8 0 -12 -6 -10 -11 -4 -13 -5 -4 -12 -10 -1 -13 -3 -11 13 -6 7 0 0 3 4 -1 -4 -5 0 -3 -2 -1 0 -6 3 -2 -9 -2 -6 -1 -6 -6 0 0 0 0 0 -4 -4 3 -1 0 -8 1 -1 2 0 0 -2 2 -7 -2 0 4c0,1 0,1 0,2l-3 -2c0,0 -2,1 -2,2 0,0 0,0 0,0l-1 1c0,0 0,0 0,0 0,0 0,0 1,0 0,0 0,0 0,0 0,1 0,1 0,1 0,0 0,0 0,0 0,0 0,0 0,0 0,0 0,0 0,1 0,0 0,0 0,0 0,0 0,0 0,0 0,0 0,0 0,0 0,0 0,1 0,1 0,0 0,0 0,0 0,0 0,0 0,1 0,0 0,0 0,0 0,0 0,0 0,0 0,1 0,1 0,2l-3 -4 0 0 0 0 -3 2 -2 -3 -3 -1 0 0 -1 1 0 0 0 3 -3 6 0 3 0 1 -4 -4 1 -2 -4 -2 -1 -3 0 -1 -4 2 -1 1 1 2 -4 3 0 0 0 0 0 0 0 0 -10 1 -3 3 4 7 -1 4 -5 2 0 3 5 3 0 3 -3 3 2 5 6 2 3 0 0 0 0 0 0 2 -7 8 2 0 14 -10 5 -4 6 1 14 6 3 12 0 1 9 15 5 2 5 5 18 17 8 2 18 10 7 7 3 4 6 13 -3 8 -3 12 6 1 5 -7c0,0 1,-5 1,-6 0,-1 6,-2 6,-2l5 -2c0,0 -2,-5 -2,-6 -1,-1 0,-4 0,-4l-8 -2 0 -5 3 -8 4 -1 3 4 6 0 3 4 5 4 3 -7 -4 -7zm-108 -114c0,0 0,0 0,0 0,0 0,0 0,0z"/>
   <path class="fil1" d="M245 209l4 5 3 -3 3 3 3 -2 -2 -5 5 -1 0 -5 2 -2 6 -4 0 -2 4 -1 -1 -3 -2 -3c0,0 -2,0 -3,-1l-1 1 -1 4 -6 -1 -2 2 -4 -1 -3 1 -4 3 -8 -1 -5 0 -3 2 0 6 2 1 0 3 4 5 -4 1 0 1 0 2 11 0 2 -5z"/>
   <path class="fil1" d="M416 160l4 11 7 7 5 6 0 10c0,0 -3,8 -2,9 0,1 2,10 2,10l4 -1 0 -3 6 -6 0 -4 1 -5 2 -1 1 0 0 3 4 -2 2 2 0 -1 1 -1 3 2 3 -2 -3 -2 -1 -6 -4 -2 1 -5 0 -3 -3 0c0,0 -3,-4 -4,-4 0,-1 0,-1 0,-1 0,0 0,0 0,0 0,0 0,0 0,-1 0,0 0,0 0,0 0,-1 0,-1 0,-1 0,0 0,0 0,-1 0,-2 1,-4 1,-4l-2 0 -5 -5 -3 2 -1 -2 -1 -1 -4 -1 -3 -2 -4 -2 -1 2 0 0 -5 0 -5 0 -1 2 5 3z"/>
   <path class="fil1" d="M334 276l4 2 1 -3 6 0 6 -2 3 0 0 -10 5 -2 1 -5 -7 -7 -1 -6 4 -6 0 0 -2 -4 4 -2 -5 -3 -4 5 -3 -4 -9 -3 4 -2 -2 -2 1 -3 -9 -6 0 -5 -7 -8 -10 -1 -10 6 0 0 1 7 3 0 -2 2 8 5 -6 0 -1 4 5 1 -4 10 5 6 -4 2 4 6 -3 2 -1 1 15 13 -4 1 1 4 0 0 6 7 0 7c2,-1 3,-3 3,-3l4 -4z"/>
   <path class="fil1" d="M331 208l0 5 9 6 -1 3 2 2 -4 2 9 3 3 4 4 -5 5 3 -4 2 2 4 5 4 -1 3 7 2 7 1 23 0 8 -5 13 -3 19 8c0,-2 1,-3 0,-4 0,0 2,-8 2,-8 0,0 2,-4 2,-4 1,-1 0,-4 0,-4l0 -2 2 -2c0,0 3,3 4,3 0,0 4,0 4,0l2 -10 -3 -2 -2 -1 -4 2 -4 1 -4 0 -4 -3c0,0 -2,-9 -2,-10 -1,-1 2,-9 2,-9l0 -10 -5 -6 -7 -7 -4 -11 -5 -3 0 1 -5 1 -2 3 -12 2 -3 5 -5 -6 -13 0 -6 -2 -2 0 -3 2 0 -1 -12 10 -12 24 -4 1 -2 1 -6 2 0 0 0 0 7 8z"/>
   <polygon class="fil1" points="249,222 252,238 263,249 278,256 299,273 300,263 301,258 304,254 304,254 305,251 309,251 310,250 313,248 309,242 313,240 308,234 312,224 307,223 308,219 314,219 306,214 308,212 305,212 304,205 301,205 301,205 299,206 297,208 291,208 283,204 282,201 277,197 274,194 273,193 273,192 269,193 269,195 263,199 261,201 261,206 256,207 258,212 255,214 252,211 249,214 245,209 243,214 232,214 236,220 "/>
   <polygon class="fil1" points="320,265 324,264 309,251 305,251 304,254 304,254 301,258 300,263 299,273 311,282 311,277 309,276 314,270 315,268 318,271 321,269 321,269 "/>
   <polygon class="fil1" points="1043,367 1040,367 1040,367 1033,367 1028,372 1026,365 1026,359 1027,352 1023,353 1023,351 1023,347 1023,344 1020,342 1013,347 1009,353 1008,359 1006,358 1000,358 998,361 998,364 996,367 995,366 990,362 978,369 976,365 975,365 972,364 968,365 965,362 959,362 958,362 958,362 948,359 945,364 935,366 934,369 931,379 921,386 911,387 913,390 911,392 911,395 908,397 907,397 904,397 901,400 898,395 892,395 889,394 886,392 883,405 877,410 880,414 877,416 877,427 881,427 877,432 879,444 880,459 893,461 893,469 879,486 900,492 916,492 917,492 924,493 929,490 936,491 955,485 956,484 957,483 954,481 955,478 957,468 964,463 972,464 975,463 973,459 981,454 984,455 986,454 990,457 995,456 997,452 997,444 999,441 999,435 1001,434 1006,434 1010,429 1008,423 1004,420 1004,419 1016,420 1020,418 1022,413 1020,410 1028,400 1027,396 1028,392 1022,383 1028,378 1030,379 1037,372 1054,370 1064,370 1068,369 1068,367 1067,365 1069,363 1071,362 1069,361 1065,360 1058,361 1052,360 1045,364 "/>
   <path class="fil1" d="M1433 613l0 0 -6 3 -2 6 -5 2 -2 7 5 -2 4 5 -3 5 0 3 9 -2 1 2 0 0 0 2 1 2 1 2 -3 9 0 7 -3 6 4 2 7 -7 1 -1 0 -2 5 -2 2 2 6 4 5 -2 2 -5 0 -1 9 1 13 15 -1 4 0 6 2 4 1 1 3 2 2 1 2 4 0 1 2 0 -3 6 0 1 3 5 0 0 0 0 -1 2c0,0 0,0 0,0 0,1 -1,3 -2,3 0,0 0,0 0,0 -1,1 -2,2 -3,3l1 2c0,0 3,1 5,1 1,0 1,0 1,0 0,0 0,0 0,0 0,1 1,1 1,1 0,0 0,0 0,0 1,0 4,1 4,1l-1 -5 2 -1 0 0 5 -1 5 2 5 0 2 0 1 -4 1 -3 -1 -2 -1 -2 4 -3 -3 -2 -3 -5 2 -5 1 0 -6 -2 0 0 -2 -4 -4 1 0 -7 -3 -4 0 -1 -18 -16 3 -2 -19 -10 3 -4 0 0 -1 -2 7 1 6 -8 -5 -3 -2 -2 2 -3 -7 -4 -2 2 -4 2 -6 -2 -1 -1 -5 -7 2 -4 -3 -3 -1 1 -1 0 0 0 0 0 -5 -9 -2 0 -5 -1 -3 3 4 9 -1 1 1 4 -7 1 -2 -9 0 5z"/>
   <polygon class="fil1" points="801,597 802,596 803,596 804,595 804,595 805,592 807,585 808,582 808,581 806,574 812,571 812,565 812,564 810,556 809,554 809,552 808,548 783,558 783,558 753,571 753,571 753,571 767,593 "/>
   <polygon class="fil1" points="520,479 515,464 509,466 493,466 492,485 494,489 506,512 515,520 518,519 518,512 523,496 523,496 524,493 524,493 522,485 "/>
   <polygon class="fil1" points="578,451 584,449 584,449 585,447 584,445 580,447 582,443 577,429 551,446 540,443 537,439 534,443 524,493 525,491 525,493 529,494 539,496 546,493 550,486 559,484 566,475 554,461 "/>
   <polygon class="fil1" points="651,362 647,363 644,364 632,362 630,367 627,367 627,367 620,375 614,376 612,379 612,386 611,406 610,408 609,411 583,426 585,431 591,448 589,450 598,451 620,464 659,496 684,498 690,489 694,483 706,483 707,484 710,486 711,486 712,486 708,480 703,474 704,470 705,467 700,466 700,459 701,457 702,456 695,445 692,442 689,440 679,435 677,434 680,431 669,419 671,416 669,411 670,409 673,410 672,405 675,401 678,399 677,392 679,390 681,388 673,389 670,385 667,385 667,385 667,385 666,378 663,377 663,375 663,372 662,372 662,368 658,364 653,369 "/>
   <path class="fil1" d="M590 142l6 1 -1 3 -5 0 0 6 3 1c0,0 0,3 0,4 0,0 0,4 0,4l-3 2 0 4 -10 -1 -3 2 -7 4 0 4 0 3 -2 4 -33 26 -10 -2 -6 -4 -5 0 -6 2 -7 5 -4 2 4 -2 7 -5 -24 2 0 0 24 -2 -5 -3 -11 0 -7 -4 3 -2 0 -4 -9 -1 -9 2 -2 4c0,-2 0,-3 0,-3 -1,0 -2,3 -2,3l-2 3 -1 -1 -1 1 0 3c0,0 -2,2 -3,3 -1,0 -3,0 -3,0 0,0 0,1 -1,2 0,0 -1,1 -1,1 -1,0 -2,-1 -2,-1 0,0 0,5 0,5 0,0 2,2 2,2l-1 1 4 5 2 0 3 1 24 3 0 0 19 3 1 -6 -1 6 17 2 10 -5 1 0c0,0 11,-3 13,-3l7 -15 17 -11 8 -16 13 -9 7 -10 8 -32c-5,1 -9,1 -9,1 0,0 0,-1 -1,-1l1 7 -7 6zm-95 71l-4 2 0 0 4 -2z"/>
   <path class="fil1" d="M1255 147l-2 4 6 3 5 6 8 2 3 0 2 4 3 0 5 4 11 23 -3 4 1 5 -4 4 3 13 36 5 21 12 6 0 -3 4 3 3 10 22 13 0 33 4 13 -2 15 2 6 5 21 7 12 0 2 4 6 2 32 -14 34 -3 6 -5 10 -12 13 -5 -10 -17 8 -10 9 0 3 2 12 3 13 -11 13 -1 6 -4 11 -12 10 -4 0 -5 6 4 9 -5 3 2 2 -3 4 4 7 0 2 -3 0 -3 -9 -15 -9 -7 -10 0 -6 6 -6 -3 -9 -1 -4 3 -8 -7 4 -4 3 -13 11 -20c-3,-1 -5,-2 -5,-2l-6 2 -8 -2 -6 -6 -12 2 -15 12 -13 7 -26 1 -19 -2 -6 -5 -3 -2 -2 -6 -6 -1 -5 -4 -13 -4 -15 -1 -11 7 -13 0 -10 -7 -5 -18 -12 -8 -16 -2 -1 -4 -9 -3 -7 -3 -3 6 -12 15 4 5 -1 5 6 4 -6 12 -7 4 -16 -3 -12 0 -13 -5 -1 -7 -13 -1 -8 -5 -14 -1 -5 7 -16 6 -10 6 0 6 -10 4 -10 1 -6 4 -1 1 2 3 4 5z"/>
   <polygon class="fil1" points="812,565 812,565 812,571 806,574 808,581 808,582 807,585 805,592 804,595 804,595 803,596 809,607 799,635 758,649 763,660 774,685 783,683 788,679 798,681 805,673 808,668 814,666 820,667 824,659 827,653 840,651 838,644 840,633 845,630 850,628 865,609 866,600 859,592 854,584 845,582 829,576 820,561 822,551 822,546 820,543 817,546 812,554 810,556 812,564 "/>
   <path class="fil1" d="M758 649l-39 6 -15 8 -7 14 -5 2 -6 -5 -9 1 -13 -2 -17 0 -8 -4 -3 3 4 3 -3 4 1 3 0 2 -5 3 1 5 0 12c0,0 6,28 6,29 0,0 3,6 3,6l9 3 13 -3 6 -6 30 -11 12 2 4 -6 14 -7 28 -9 3 -7 2 -6 10 -4 -11 -25 -5 -11z"/>
   <path class="fil1" d="M988 576l1 -5 1 1 1 -1 13 2 11 -4c0,0 -1,3 0,3 0,0 5,0 5,0l2 -3 -2 0 -1 -3 2 0 -6 -11 0 -5 -5 0 -4 -6 2 -7 -10 -4 10 -16 4 -2 3 3 1 2 14 -4 2 0c0,0 6,-13 7,-13 0,-1 8,-5 8,-5l5 -14 7 -2 0 -6 2 -1 6 -7 3 -2 -2 -1 2 -5 -3 -4 2 -3 9 -4 1 -3 3 1 2 -4 2 -7 3 0 4 -4 5 0 2 2 6 3 2 0 2 -2 3 2 3 5 2 -1 2 3 2 -1 4 -3 3 5 3 -7 0 -6 -5 -5 4 -8 6 -8 3 -1 4 -5 2 -5 1 -4 0 -3 -7 -2 -5 -5 -5 -1 -3 0 -2 2 -10 7 -6 -1 -2 -3 -2 -1 -8 -4 0 -4 -5 -3 -10 -5 -7 -4 -7 -2 0 2 -4 1 -10 0 -17 2 -7 7 -2 -1 -6 5 6 9 -1 4 1 4 -8 10 2 3 -2 5 -4 2 -12 -1 0 1 4 3 2 6 -4 5 -5 0 -2 1 0 6 -2 3 0 8 -2 4 -5 1 -4 -3 -2 1 -3 -1 -8 5 2 4 -3 1 -8 -1 -7 5 -2 10 -1 3 3 2 -1 1 -1 1 -19 6 -7 -1 -5 3 -7 -1 -1 0 -16 0 -21 -6 8 7 2 6 3 3 3 4 7 4 4 0 2 0 -1 17 5 -1 1 2 -1 7c0,0 -8,2 -9,2 0,0 -4,5 -4,5l-5 0 -3 15 10 1 59 -3 3 9 4 1 6 14 8 2 1 -4 6 -1z"/>
   <path class="fil1" d="M540 427l-1 -4 4 0 5 -8 -2 -7c0,0 -4,0 -7,0l0 3 -9 22 1 0 0 0 2 0 2 0 5 -6z"/>
   <path class="fil1" d="M638 682l-1 -3 3 -4 -4 -3 3 -3 8 4 17 0 13 2 9 -1 6 5 5 -2 7 -14 15 -8 39 -6 41 -14 10 -28 -6 -11 -1 0 -1 1 -34 -4 -14 -22 -1 -1 0 0 1 1 0 0 30 -13 -27 -18 -41 -31 0 -7 0 -12 -1 -1 -4 -3 0 0 0 0 -3 -2 -1 -1 -12 0 -4 6 -6 9 -25 -2 -39 -32 -22 -13 -9 -1 -5 -1 0 0 -6 2 -24 10 12 14 -7 9 -9 2 -4 7 -7 3 -10 -2 -4 -3 -7 21 7 1 8 8 16 28 12 21 14 9 8 17 -2 13 7 19 10 4c0,0 9,8 10,8 0,1 5,18 5,18l16 20 4 9 5 -3 0 -2zm115 -120l2 -11 -2 -4 0 0 2 4 -2 11 0 0zm-9 4l0 0 -32 -56 32 56zm7 -21l0 0 0 0z"/>
   <path class="fil1" d="M520 479l0 0 2 5 2 9 10 -50 1 -5 0 -5c-1,0 -2,0 -2,0l-1 0 -1 0 -1 0 0 1 -13 29 -2 1 5 15z"/>
   <path class="fil1" d="M355 140c0,0 -1,2 -2,4l6 6 6 11 6 2 13 0 5 6 3 -5 12 -2 2 -3 5 -1 0 -1 1 -2 5 0 5 0 0 0 1 -2 4 2 3 2 4 1 1 1 1 2 3 -2 5 5 2 0c0,0 -1,2 -1,4 0,1 0,1 0,1 0,0 0,0 0,1 0,0 0,0 0,0 0,1 0,1 0,1 0,0 0,0 0,0 0,0 0,0 0,1 1,0 4,4 4,4l3 0 0 3 -1 5 4 2 1 6 3 2 -3 2 -3 -2 -1 1 0 1 -2 -2 -4 2 0 -3 -1 0 -2 1 -1 5 0 4 -6 6 0 3 -4 1 4 3 4 0 4 -1 4 -2 2 1 3 2 1 -1c0,0 -2,-2 -2,-2 0,0 0,-5 0,-5 0,0 1,1 2,1 0,0 1,-1 1,-1 1,-1 1,-2 1,-2 0,0 2,0 3,0 1,-1 3,-3 3,-3l0 -3 1 -1 1 1 2 -3c0,0 1,-3 2,-3 0,0 0,1 0,3l2 -4 9 -2 9 1 0 4 -3 2 7 4 11 0 5 3 6 -2 5 0 6 4 10 2 33 -26 2 -4 0 -3 0 -4 7 -4 3 -2 10 1 0 -4 3 -2c0,0 0,-4 0,-4 0,-1 0,-4 0,-4l-3 -1 0 -6 5 0 1 -3 -6 -1 7 -6 -1 -7c-2,-1 -6,0 -7,-1 -2,-1 -8,-5 -8,-5 0,-1 -3,1 -3,1l-2 -5c0,0 -3,2 -4,1 0,-1 -1,-2 -1,-2l-5 3 -7 -12 -9 6c0,0 -5,1 -6,-1 -2,-2 -7,-2 -10,-2 -3,0 -4,-2 -3,-5 1,-3 0,-9 0,-9l-4 -2 0 -3c0,0 -8,0 -9,0 0,-1 -1,-1 -1,-1 -1,-1 0,-5 0,-5l-3 -2 1 -2 3 -2 -9 -13 -7 1 -4 -2c0,0 -3,1 -3,3 0,1 -3,1 -4,0 -2,0 -3,2 -3,3 0,1 -1,2 -1,2l-5 0 -10 0 -7 10c0,0 -1,2 0,4 0,1 2,2 0,3 -3,2 -4,-3 -4,-3 0,0 -2,-2 -2,-2l-4 2 -3 -1c0,0 -5,3 -5,3 0,-1 -1,-5 -1,-5l-3 -1 -5 5c0,0 -1,-4 -2,-4 0,0 -3,0 -3,0l0 -1 -4 1 -3 0 -6 0c0,0 -1,-4 -1,-4 -1,0 -8,0 -8,0l-13 -4 -13 0c0,0 -6,2 -8,4 -1,2 -5,4 -6,4 0,0 -2,0 -2,0 0,0 0,5 0,5l7 11c0,0 -2,1 -2,3 1,2 2,4 1,4 -1,1 -18,19 -20,22l0 0c0,1 0,3 1,4 0,1 -1,5 -1,5z"/>
   <path class="fil1" d="M591 171l-13 9 -8 16 -17 11 -7 15c0,0 0,0 0,0 1,0 10,1 10,3 1,1 5,6 5,6l19 9 8 7 5 2 2 3c0,-1 0,-1 1,-1 0,-1 0,-1 0,-1l8 0 6 4 11 2 13 2 4 4 8 2 -1 3 4 2 4 -3 6 0 1 2 2 -3 6 4 5 2 -1 4 0 3 6 1 6 2 0 1 1 1 1 -1 0 0 1 0 12 12 3 -1 3 -5 4 -1 0 -1 2 -2 1 -2 -7 -8 -3 -4 -6 -10 4 -16 -3 0 -2 -5c0,0 -4,-3 -4,-3 -1,0 -4,-2 -4,-2l-1 -3c0,0 1,-4 3,-6 1,-1 1,-1 2,-2 2,0 2,-3 3,-3 0,-1 0,-2 0,-2l2 1c0,0 -2,-3 0,-5 2,-1 2,-3 5,-4 2,-1 9,-1 9,-1l3 -3 12 -6 0 0 -3 -4c0,0 -3,-2 -4,-2 -1,-1 -4,-1 -6,-2 -2,0 0,-2 0,-2l1 -2 3 2 2 -3 -11 -17 -7 -4 -5 3 -3 -2 -2 -3 2 -2 1 -1 -1 -2 -2 -3 -6 -2 7 -16 -3 -5 1 -10 4 -2 2 -7c-15,3 -68,13 -89,15l-8 32 -7 10z"/>
   <path class="fil1" d="M1264 591l3 -3 -4 -1 0 -4 -3 -2 4 -5 0 -4c0,0 -9,-4 -10,-5 0,0 1,-4 1,-4l2 0 2 -5 7 0 0 -2 -12 -8 2 -4 4 -4 -7 0 1 -2 -3 1 -1 0 -4 1 -3 0 -2 -1 -1 -2 -2 1 -2 0 -8 -2 -2 -1 -3 2 -2 -4 -7 0 -5 -3 -2 -1 0 -3 -1 -1 -6 -2 -3 0 -1 1 0 1 -6 -2 0 0 -2 2 -8 -3 0 -3 -4 0 -14 -6 -2 -4 -9 -5 -1 3 -6 -6 3 -6 0 -8 3 -2 6 -5 0 0 -9 -5 -2 -5 -8 -4 -10 -10 -3 -4 -2 -4 0 -5 -2 1 -2 -3 -2 1 -3 -5 -3 -2 -2 2 -2 0 -6 -3 -2 -2 -5 0 -4 4 -3 0 -2 7 -2 4 -3 -1 -1 3 -9 4 -2 3 3 4 -2 5 2 1 -3 2 -6 7 -2 1 0 6 -7 2 -5 14c0,0 -8,4 -8,5 -1,0 -7,13 -7,13l-2 0 -14 4 -1 -2 -3 -3 -4 2 -10 16 10 4 -2 7 4 6 5 0 0 5 6 11 -2 0 1 3 2 0 -2 3c0,0 -5,0 -5,0 -1,0 0,-3 0,-3l-11 4 -13 -2 -1 1 -1 -1 -1 5 -6 1 -1 4 4 1 5 9 12 5 10 -2 -15 8 -4 -2 1 6 18 19 10 2 15 -10 2 -13 4 -1 0 12 3 12 -3 6 2 14 10 48 8 13 10 35 10 13 10 33 11 15 8 1 17 -18 2 -6 3 -6 8 -1 0 -23 6 -11 -1 -14 -1 -23 4 -6 5 0 21 -11 -1 -6 23 -17 16 -18 1 -4 3 -3 2 2 16 -8 2 -11 2 -5 14 -7 7 4 7 -1 -2 -18 -2 -3z"/>
   <path class="fil1" d="M1317 615c1,0 -1,-11 -1,-11l-2 -12 -3 -12 -3 -1 -2 6 -3 1c0,0 1,4 0,4 0,0 -2,0 -3,0 0,0 0,0 0,0 -1,0 -1,-1 -1,-2 -1,-2 -3,-7 -3,-7 0,0 3,-8 4,-8 0,0 1,0 3,-1 0,0 0,0 0,0 0,0 0,0 0,0 1,0 1,0 1,0 0,0 0,0 0,0 1,0 1,0 1,0 0,0 0,0 0,0 2,-1 3,-1 3,-1l1 -3 1 -4 2 -2 1 0 1 -1 -4 -2 -2 -1 -22 0 -8 -3 0 -8 0 -1 -1 -2 -3 1 -2 1 -3 -1 -4 -3c0,0 -4,0 -7,0l-2 2 -2 4 12 8 0 2 -7 0 -2 5 -2 0c0,0 -1,4 -1,4 1,1 10,5 10,5l0 4 -4 5 3 2 0 4 4 1 -3 3 2 3 2 18 22 -5 9 -12 4 2 4 18 5 5 0 -5c0,0 3,1 5,0z"/>
   <path class="fil1" d="M1399 718l-5 -9 -1 -5 5 -2 0 -10 3 -1 2 -3 -2 -2 -3 -2 0 -4 -12 -15 -1 -2 -3 -7 4 0 -2 -5 3 -1 2 -10 2 -2 1 2 11 -1 2 -5 6 -1 -1 -3 2 0 2 1 3 -2 1 2 2 -7 5 -2 2 -6 6 -3 0 -5 -4 4 -2 1 -1 0 0 0 0 0 -2 1 -4 -1 -1 -2 -2 -4c0,0 -2,-2 -2,-2 0,-1 -3,-1 -3,-1l-2 1 -4 -1 4 -13 2 2 0 -4 -10 -1 0 -6 -2 -3 2 -5 -11 1 -5 3 -2 -2 2 -3 1 -3 -3 -2 0 -3 3 -1 1 -8c0,0 2,0 3,0 0,0 1,-5 1,-5l1 2 7 -6 -2 -3 2 -1 0 -21 -3 -2 -2 1 -3 -8 -6 -6 -4 5 0 4 -6 1 0 7 2 2 1 1 0 0 -1 2c0,0 -2,0 -2,-1 0,0 0,0 0,0 -1,0 -1,0 -1,-1 -1,0 -1,-1 -2,-1 0,0 0,0 0,0 -1,-1 -2,-1 -2,-1l-6 2 -9 7 -4 3 -3 12 0 1 -4 3 0 1 -2 3 2 2 -7 16 -1 2 -7 -1 0 0 -4 1 -1 -2 3 11 -2 4 -2 -1 -1 0 0 6 1 7 -4 4 -1 -1 -3 -1c0,0 2,11 1,11 -2,1 -5,0 -5,0l0 5 23 26 9 23 -5 23 9 6 9 0 5 -5 13 -10 1 -10 10 23 7 28 11 2 0 -3 -5 -5z"/>
   <path class="fil1" d="M1453 742l-2 -15 2 -1 6 -9 9 -2 3 1c0,0 14,-1 15,-1 0,0 0,0 0,0l3 2c1,-1 2,-2 3,-3 0,0 0,0 0,0 1,0 2,-2 2,-3 0,0 0,0 0,0l1 -2 0 0 0 0 -3 -5 0 -1 3 -6 -2 0 0 -1 -2 -4 -2 -1 -3 -2 -1 -1 -2 -4 0 -6 1 -4 -13 -15 -9 -1 0 1 -2 5 -5 2 -6 -4 -2 -2 -5 2 0 2 -1 1 -7 7 -4 -2 3 -6 0 -7 3 -9 -1 -2 -1 -2 0 -2 0 0 -1 -2 -9 2 0 -3 3 -5 -4 -5 -5 2 -1 -2 -3 2 -5 -2 1 4 1 0 -6 1 -2 5 -11 1 -1 -2 -2 2 -2 10 -3 1 2 5 -4 0 3 7 1 2 12 15 0 4 3 2 2 2 -2 3 -3 1 0 10 -5 2 1 5 5 9 5 5 0 3 16 3 9 0 2 12 13 0 11 9 0 0 0 -5 -2 -3z"/>
   <path class="fil1" d="M1516 611l-1 -4 -6 -3 -1 -8 0 -4 -9 0 -10 -7 -10 8 -5 0 -3 4 -2 -4 -2 3 -4 -3 -2 6 -8 -4 -7 5 2 0 5 9 1 0 1 -1 3 3 -2 4 5 7 1 1 6 2 4 -2 2 -2 7 4 -2 3 2 2 5 3 -6 8 0 0 0 0 -7 -1 1 2 0 0 -3 4 19 10 -3 2 18 16 0 1 3 4 0 7 4 -1 2 4 0 0 6 2 -1 0 -2 5 3 5 3 2 -4 3 1 2 1 2 -1 3 -1 4 -2 0 3 5 3 5 -1 7 -3 11c0,0 -8,4 -9,4 0,0 -3,2 -3,2l-1 2 -6 0 -3 2 1 3c0,0 4,4 5,4 1,0 0,5 0,5l-5 -2 -2 -2 -4 3 -4 -2 -2 5 -9 4 10 4 -2 3 0 18 3 0 7 -7 11 -5 4 -5 2 -7 6 0 14 -8 12 -10 2 -14 1 -18 -9 -23 -40 -45 -3 -8 13 -18 14 -14 8 -3 0 0 -14 -2z"/>
   <g>
    <path class="fil1" d="M1488 764l4 2 4 -3 2 2 5 2c0,0 1,-5 0,-5 -1,0 -5,-4 -5,-4l-1 -3 3 -2 6 0 1 -2c0,0 3,-2 3,-2 1,0 9,-4 9,-4l3 -11 1 -7 -3 -5 -3 -5 -5 0 -5 -2 -5 1 0 0 -2 1 1 5c0,0 -3,-1 -4,-1 0,0 0,0 0,0 0,0 -1,0 -1,-1 0,0 0,0 0,0 0,0 0,0 -1,0 -2,0 -5,-1 -5,-1l-1 -2 0 0 -3 -2 0 0 0 0c0,0 0,0 0,0l0 0 0 0c-1,0 -15,1 -15,1l-3 -1 -9 2 -6 9 -2 1 2 15 2 3 0 5 7 16 15 7 9 -4 2 -5zm0 -45l0 0 0 -1 0 1zm-2 -4l0 0 0 0z"/>
   </g>
   <path class="fil1" d="M899 542c0,0 4,-5 4,-5 1,0 9,-2 9,-2l1 -7 -1 -2 -5 1 1 -17 -2 0 -4 0 -7 -4 -3 -4 -3 -3 -2 -6 -8 -7 14 -17 0 -8 -13 -2 -1 -15 -2 -12 4 -5 -4 0 0 -11 3 -2 -3 -4 6 -5 3 -13 0 -1 -2 -5 0 -12 -10 0 -1 -1 -3 -4 -8 -3 -3 -7 -1 -1 -6 -2 -6 2 -5 -4 -3 -1 -6 -2 -3 -5 -1 2 -4 -1 -4 -1 -4 4 -10 -1 -7 6 -4 6 -3 1 -8 0c0,6 -1,11 -2,11 -3,-1 -8,-2 -8,-2l-7 4 -19 -1 -10 -10 -7 -2c0,0 -8,-4 -9,-4 -2,-1 -6,-8 -6,-8l1 -7 -1 0c0,0 -4,0 -5,-1 -1,-1 -5,-4 -5,-4l-2 -3 5 -3 -3 -4 3 -2 -7 -4 -4 3 -9 6 -4 3 -3 1 -3 1 -2 -1 -8 -2 -2 -1 0 0 -8 -11 -1 -1 -2 0 -2 6 -5 0 4 9 -1 7 3 3 -3 6 6 4 -1 5 1 4 4 4 0 4 1 0 0 3 0 2 3 1 1 7 3 0 3 4 8 -1 -2 2 -2 2 1 7 -3 2 -3 4 1 5 -3 -1 -1 2 2 5 -2 3 11 12 -3 3 2 1 10 5 3 2 3 3 7 11 -1 1 -1 2 0 7 5 1 -1 3 -1 4 5 6 4 6 6 -2 -1 -5 10 5 6 -1 8 15 11 19 12 4 8 8 27 11 18 -13 8 2 3 7 5 14 58 7 3 -15 5 0z"/>
   <path class="fil1" d="M548 415l-5 8 -4 0 1 4 -5 4 0 2 0 5 -1 5 3 -4 3 4 11 3 26 -17 6 -3 26 -15 1 -3 1 -2 1 -20 0 -7 2 -3 6 -1 7 -8 0 0 -2 -4 -7 3 -7 0 -4 0 -23 8 -7 -1 -7 -4 -8 6 -8 -1 -5 -2 -3 5 3 3c0,0 -4,2 -4,2l0 3 -4 4 -2 -2 -2 2 1 4 1 7 0 8c3,0 7,0 7,0l2 7z"/>
   <path class="fil1" d="M272 189l1 3 0 1 1 1 3 3 5 4 1 3 8 4 6 0 2 -2 2 -1 0 0 3 0 0 0 10 -6 10 1 0 0 0 0 6 -2 2 -1 4 -1 12 -24 12 -10 0 -2 -4 0 -2 -3 -5 -4 1 -5 -8 0 -12 3 -4 9 -8 0c0,0 -10,3 -11,3 -1,0 -1,3 -1,3l-9 3 -15 -2 -3 0 -4 2 -2 -1c0,0 -4,2 -3,2 1,0 5,3 5,3l-3 1 -1 7 0 1 -4 3c1,1 3,1 3,1l2 3z"/>
   <path class="fil1" d="M354 157l2 3 4 0 0 2 0 1 3 -2 2 0 -6 -11 -6 -6c-1,2 -3,4 -3,4l0 0 -1 5 5 4z"/>
   <path class="fil1" d="M208 183l4 -3 0 0 0 0 0 4 6 6 6 1 9 2 0 0 0 0 5 0 8 1 4 -3 3 -1 4 1 2 -2 6 1 1 -4 1 -1 4 -3 0 -1 1 -7 3 -1c0,0 -4,-3 -5,-3 -1,0 3,-2 3,-2l2 1 4 -2 3 0 2 -4 -5 -6 0 -5 -3 -4 -4 -1 -12 -3 -8 5 -15 0 -9 7 -4 6 2 10 -7 -3 -12 2 0 12 1 0z"/>
   <path class="fil1" d="M197 172l-12 2 -3 -2c0,0 -3,-1 -6,-1l3 3 -1 3c0,0 -2,3 -2,3 0,1 3,3 3,3l6 3c0,0 3,-3 3,-3 1,0 1,1 1,3l7 2 2 -2 0 0 1 -2 8 -1 0 0 0 -12 -10 1z"/>
   <path class="fil1" d="M189 190l0 -4 0 0c0,-2 0,-3 -1,-3 0,0 -3,3 -3,3l-6 -3c0,0 -3,-2 -3,-3 0,0 2,-3 2,-3l1 -3 -3 -3 -1 -1c0,0 -4,0 -4,0 -1,0 -4,-2 -4,-2l-3 0 -1 0 0 0 -1 0 -1 0 1 2 -11 0 0 0 -1 1 -9 13 2 11 1 1 -3 6 -1 5 3 -3 10 -1 0 0 0 0 0 0 0 0 0 0 4 -3 -1 -2 1 -1 1 0 3 -2 0 1 1 3 4 2 -1 2 4 4 0 -1 0 0 0 -3 3 -6 0 -3 0 0 1 -1 0 0 3 1 2 3 3 -2 0 0 0 0 3 4c0,-2 0,-5 -1,-6l1 -1c0,0 0,0 0,0 0,-1 2,-2 2,-2l3 2c0,-1 0,-1 0,-2z"/>
  </g>
 </g>
</svg>
